%YAML 1.1
%TAG !u! tag:unity3d.com,2011:
--- !u!1045 &1
EditorBuildSettings:
  m_ObjectHideFlags: 0
  serializedVersion: 2
  m_Scenes:
  - enabled: 0
    path: 
    guid: 2cda990e2423bbf4892e6590ba056729
  - enabled: 1
    path: Assets/Scenes/gamescene.unity
    guid: 8b78f2e92a221874ebc65d9f6cf13620
  - enabled: 1
    path: Assets/Scenes/gameoverScene.unity
    guid: 3a367218666fde9439e69283c7c543e3
  - enabled: 1
    path: Assets/Scenes/1Pwin.unity
    guid: 57643c42ec7e2534e9a7762fca8f2f8d
  m_configObjects: {}
